[{"id":1,"numcta":1234123412340001,"tipo":"ahorros","saldo":"$85227.81","moneda":"dolares","idUsuario":1},
{"id":2,"numcta":1234123412340002,"tipo":"ahorros","saldo":"$85593.59","moneda":"dolares","idUsuario":1},
{"id":3,"numcta":1234123412340003,"tipo":"ahorros","saldo":"$10096.55","moneda":"dolares","idUsuario":1},
{"id":4,"numcta":1234123412340004,"tipo":"ahorros","saldo":"$33819.35","moneda":"dolares","idUsuario":1},
{"id":5,"numcta":1234123412340005,"tipo":"ahorros","saldo":"$91218.40","moneda":"dolares","idUsuario":1},
{"id":6,"numcta":1234123412340006,"tipo":"ahorros","saldo":"$63366.18","moneda":"dolares","idUsuario":1},
{"id":7,"numcta":1234123412340007,"tipo":"ahorros","saldo":"$46334.25","moneda":"dolares","idUsuario":1},
{"id":8,"numcta":1234123412340008,"tipo":"ahorros","saldo":"$41068.61","moneda":"dolares","idUsuario":1},
{"id":9,"numcta":1234123412340009,"tipo":"ahorros","saldo":"$60062.04","moneda":"dolares","idUsuario":1},
{"id":10,"numcta":1234123412340010,"tipo":"ahorros","saldo":"$31245.61","moneda":"dolares","idUsuario":1},
{"id":11,"numcta":1234123412340011,"tipo":"ahorros","saldo":"$62315.95","moneda":"dolares","idUsuario":2},
{"id":12,"numcta":1234123412340012,"tipo":"ahorros","saldo":"$87420.85","moneda":"dolares","idUsuario":2},
{"id":13,"numcta":1234123412340013,"tipo":"ahorros","saldo":"$60986.73","moneda":"dolares","idUsuario":2},
{"id":14,"numcta":1234123412340014,"tipo":"ahorros","saldo":"$37748.13","moneda":"dolares","idUsuario":2},
{"id":15,"numcta":1234123412340015,"tipo":"ahorros","saldo":"$79980.44","moneda":"dolares","idUsuario":2},
{"id":16,"numcta":1234123412340016,"tipo":"ahorros","saldo":"$58564.61","moneda":"dolares","idUsuario":2},
{"id":17,"numcta":1234123412340017,"tipo":"ahorros","saldo":"$10001.31","moneda":"dolares","idUsuario":2},
{"id":18,"numcta":1234123412340018,"tipo":"ahorros","saldo":"$22016.17","moneda":"dolares","idUsuario":2},
{"id":19,"numcta":1234123412340019,"tipo":"ahorros","saldo":"$60157.63","moneda":"dolares","idUsuario":2},
{"id":20,"numcta":1234123412340020,"tipo":"ahorros","saldo":"$74870.56","moneda":"dolares","idUsuario":2},
{"id":21,"numcta":1234123412340021,"tipo":"ahorros","saldo":"$18033.11","moneda":"dolares","idUsuario":3},
{"id":22,"numcta":1234123412340022,"tipo":"ahorros","saldo":"$49815.34","moneda":"dolares","idUsuario":3},
{"id":23,"numcta":1234123412340023,"tipo":"ahorros","saldo":"$54824.86","moneda":"dolares","idUsuario":3},
{"id":24,"numcta":1234123412340024,"tipo":"ahorros","saldo":"$18274.14","moneda":"dolares","idUsuario":3},
{"id":25,"numcta":1234123412340025,"tipo":"ahorros","saldo":"$73239.70","moneda":"dolares","idUsuario":3},
{"id":26,"numcta":1234123412340026,"tipo":"ahorros","saldo":"$31828.10","moneda":"dolares","idUsuario":3},
{"id":27,"numcta":1234123412340027,"tipo":"ahorros","saldo":"$61843.10","moneda":"dolares","idUsuario":3},
{"id":28,"numcta":1234123412340028,"tipo":"ahorros","saldo":"$53238.06","moneda":"dolares","idUsuario":3},
{"id":29,"numcta":1234123412340029,"tipo":"ahorros","saldo":"$61599.20","moneda":"dolares","idUsuario":3},
{"id":30,"numcta":1234123412340030,"tipo":"ahorros","saldo":"$77748.35","moneda":"dolares","idUsuario":4},
{"id":31,"numcta":1234123412340031,"tipo":"ahorros","saldo":"$10260.08","moneda":"dolares","idUsuario":4},
{"id":32,"numcta":1234123412340032,"tipo":"ahorros","saldo":"$32165.36","moneda":"dolares","idUsuario":4},
{"id":33,"numcta":1234123412340033,"tipo":"ahorros","saldo":"$13066.06","moneda":"dolares","idUsuario":4},
{"id":34,"numcta":1234123412340034,"tipo":"ahorros","saldo":"$66908.78","moneda":"dolares","idUsuario":4},
{"id":35,"numcta":1234123412340035,"tipo":"ahorros","saldo":"$82647.98","moneda":"dolares","idUsuario":4},
{"id":36,"numcta":1234123412340036,"tipo":"ahorros","saldo":"$99718.02","moneda":"dolares","idUsuario":4},
{"id":37,"numcta":1234123412340037,"tipo":"ahorros","saldo":"$27011.13","moneda":"dolares","idUsuario":4},
{"id":38,"numcta":1234123412340038,"tipo":"ahorros","saldo":"$15857.34","moneda":"dolares","idUsuario":4},
{"id":39,"numcta":1234123412340039,"tipo":"ahorros","saldo":"$39823.85","moneda":"dolares","idUsuario":4},
{"id":40,"numcta":1234123412340040,"tipo":"ahorros","saldo":"$65712.51","moneda":"dolares","idUsuario":5},
{"id":41,"numcta":1234123412340041,"tipo":"ahorros","saldo":"$98076.58","moneda":"dolares","idUsuario":5},
{"id":42,"numcta":1234123412340042,"tipo":"ahorros","saldo":"$53351.70","moneda":"dolares","idUsuario":5},
{"id":43,"numcta":1234123412340043,"tipo":"ahorros","saldo":"$98152.76","moneda":"dolares","idUsuario":5},
{"id":44,"numcta":1234123412340044,"tipo":"ahorros","saldo":"$53171.97","moneda":"dolares","idUsuario":5},
{"id":45,"numcta":1234123412340045,"tipo":"ahorros","saldo":"$90453.22","moneda":"dolares","idUsuario":5},
{"id":46,"numcta":1234123412340046,"tipo":"ahorros","saldo":"$99478.69","moneda":"dolares","idUsuario":5},
{"id":47,"numcta":1234123412340047,"tipo":"ahorros","saldo":"$45480.40","moneda":"dolares","idUsuario":5},
{"id":48,"numcta":1234123412340048,"tipo":"ahorros","saldo":"$63317.50","moneda":"dolares","idUsuario":5},
{"id":49,"numcta":1234123412340049,"tipo":"ahorros","saldo":"$55596.68","moneda":"dolares","idUsuario":5},
{"id":50,"numcta":1234123412340050,"tipo":"ahorros","saldo":"$41692.42","moneda":"dolares","idUsuario":6},
{"id":51,"numcta":1234123412340051,"tipo":"ahorros","saldo":"$82758.28","moneda":"dolares","idUsuario":6},
{"id":52,"numcta":1234123412340052,"tipo":"ahorros","saldo":"$13867.54","moneda":"dolares","idUsuario":6},
{"id":53,"numcta":1234123412340053,"tipo":"ahorros","saldo":"$57285.39","moneda":"dolares","idUsuario":6},
{"id":54,"numcta":1234123412340054,"tipo":"ahorros","saldo":"$57533.45","moneda":"dolares","idUsuario":6},
{"id":55,"numcta":1234123412340055,"tipo":"ahorros","saldo":"$35547.95","moneda":"dolares","idUsuario":6},
{"id":56,"numcta":1234123412340056,"tipo":"ahorros","saldo":"$43465.71","moneda":"dolares","idUsuario":6},
{"id":57,"numcta":1234123412340057,"tipo":"ahorros","saldo":"$92608.26","moneda":"dolares","idUsuario":6},
{"id":58,"numcta":1234123412340058,"tipo":"ahorros","saldo":"$28471.44","moneda":"dolares","idUsuario":6},
{"id":59,"numcta":1234123412340059,"tipo":"ahorros","saldo":"$90740.94","moneda":"dolares","idUsuario":6},
{"id":60,"numcta":1234123412340060,"tipo":"ahorros","saldo":"$66615.35","moneda":"dolares","idUsuario":7},
{"id":61,"numcta":1234123412340061,"tipo":"ahorros","saldo":"$72073.77","moneda":"dolares","idUsuario":7},
{"id":62,"numcta":1234123412340062,"tipo":"ahorros","saldo":"$97356.17","moneda":"dolares","idUsuario":7},
{"id":63,"numcta":1234123412340063,"tipo":"ahorros","saldo":"$98195.05","moneda":"dolares","idUsuario":7},
{"id":64,"numcta":1234123412340064,"tipo":"ahorros","saldo":"$14122.75","moneda":"dolares","idUsuario":7},
{"id":65,"numcta":1234123412340065,"tipo":"ahorros","saldo":"$87951.22","moneda":"dolares","idUsuario":7},
{"id":66,"numcta":1234123412340066,"tipo":"ahorros","saldo":"$22313.88","moneda":"dolares","idUsuario":7},
{"id":67,"numcta":1234123412340067,"tipo":"ahorros","saldo":"$72976.43","moneda":"dolares","idUsuario":7},
{"id":68,"numcta":1234123412340068,"tipo":"ahorros","saldo":"$54119.72","moneda":"dolares","idUsuario":7},
{"id":69,"numcta":1234123412340069,"tipo":"ahorros","saldo":"$98099.90","moneda":"dolares","idUsuario":7},
{"id":70,"numcta":1234123412340070,"tipo":"ahorros","saldo":"$39390.85","moneda":"dolares","idUsuario":8},
{"id":71,"numcta":1234123412340071,"tipo":"ahorros","saldo":"$91366.42","moneda":"dolares","idUsuario":8},
{"id":72,"numcta":1234123412340072,"tipo":"ahorros","saldo":"$28177.50","moneda":"dolares","idUsuario":8},
{"id":73,"numcta":1234123412340073,"tipo":"ahorros","saldo":"$58360.34","moneda":"dolares","idUsuario":8},
{"id":74,"numcta":1234123412340074,"tipo":"ahorros","saldo":"$89238.36","moneda":"dolares","idUsuario":8},
{"id":75,"numcta":1234123412340075,"tipo":"ahorros","saldo":"$54201.69","moneda":"dolares","idUsuario":8},
{"id":76,"numcta":1234123412340076,"tipo":"ahorros","saldo":"$81286.85","moneda":"dolares","idUsuario":8},
{"id":77,"numcta":1234123412340077,"tipo":"ahorros","saldo":"$49323.88","moneda":"dolares","idUsuario":8},
{"id":78,"numcta":1234123412340078,"tipo":"ahorros","saldo":"$42489.13","moneda":"dolares","idUsuario":8},
{"id":79,"numcta":1234123412340079,"tipo":"ahorros","saldo":"$13964.52","moneda":"dolares","idUsuario":8},
{"id":80,"numcta":1234123412340080,"tipo":"ahorros","saldo":"$43356.99","moneda":"dolares","idUsuario":9},
{"id":81,"numcta":1234123412340081,"tipo":"ahorros","saldo":"$51797.84","moneda":"dolares","idUsuario":9},
{"id":82,"numcta":1234123412340082,"tipo":"ahorros","saldo":"$57587.66","moneda":"dolares","idUsuario":9},
{"id":83,"numcta":1234123412340083,"tipo":"ahorros","saldo":"$94600.43","moneda":"dolares","idUsuario":9},
{"id":84,"numcta":1234123412340084,"tipo":"ahorros","saldo":"$73877.47","moneda":"dolares","idUsuario":9},
{"id":85,"numcta":1234123412340085,"tipo":"ahorros","saldo":"$53128.07","moneda":"dolares","idUsuario":9},
{"id":86,"numcta":1234123412340086,"tipo":"ahorros","saldo":"$58475.65","moneda":"dolares","idUsuario":9},
{"id":87,"numcta":1234123412340087,"tipo":"ahorros","saldo":"$88240.03","moneda":"dolares","idUsuario":9},
{"id":88,"numcta":1234123412340088,"tipo":"ahorros","saldo":"$61424.25","moneda":"dolares","idUsuario":9},
{"id":89,"numcta":1234123412340089,"tipo":"ahorros","saldo":"$16300.64","moneda":"dolares","idUsuario":9},
{"id":90,"numcta":1234123412340090,"tipo":"ahorros","saldo":"$32271.83","moneda":"dolares","idUsuario":10},
{"id":91,"numcta":1234123412340091,"tipo":"ahorros","saldo":"$39998.99","moneda":"dolares","idUsuario":10},
{"id":92,"numcta":1234123412340092,"tipo":"ahorros","saldo":"$92597.02","moneda":"dolares","idUsuario":10},
{"id":93,"numcta":1234123412340093,"tipo":"ahorros","saldo":"$70444.90","moneda":"dolares","idUsuario":10},
{"id":94,"numcta":1234123412340094,"tipo":"ahorros","saldo":"$37153.16","moneda":"dolares","idUsuario":10},
{"id":95,"numcta":1234123412340095,"tipo":"ahorros","saldo":"$50506.92","moneda":"dolares","idUsuario":10},
{"id":96,"numcta":1234123412340096,"tipo":"ahorros","saldo":"$28133.01","moneda":"dolares","idUsuario":10},
{"id":97,"numcta":1234123412340097,"tipo":"ahorros","saldo":"$62098.69","moneda":"dolares","idUsuario":10},
{"id":98,"numcta":1234123412340098,"tipo":"ahorros","saldo":"$23807.51","moneda":"dolares","idUsuario":10},
{"id":99,"numcta":1234123412340099,"tipo":"ahorros","saldo":"$42755.85","moneda":"dolares","idUsuario":10},
{"id":100,"numcta":1234123412340100,"tipo":"ahorros","saldo":"$21204.20","moneda":"dolares","idUsuario":10}]
