[{"id":1,"tipo":"abono","fecha":"06/12/2019","descripcion":"error: no implicit conversion of Fixnum into String","importe":"$25140.43","moneda":"dolares"},
{"id":2,"tipo":"abono","fecha":"10/30/2018","descripcion":"error: no implicit conversion of Fixnum into String","importe":"$54816.61","moneda":"dolares"},
{"id":3,"tipo":"abono","fecha":"02/16/2019","descripcion":"error: no implicit conversion of Fixnum into String","importe":"$43625.89","moneda":"dolares"},
{"id":4,"tipo":"abono","fecha":"07/27/2019","descripcion":"error: no implicit conversion of Fixnum into String","importe":"$77559.12","moneda":"dolares"},
{"id":5,"tipo":"abono","fecha":"04/26/2019","descripcion":"error: no implicit conversion of Fixnum into String","importe":"$52342.16","moneda":"dolares"},
{"id":6,"tipo":"abono","fecha":"02/23/2019","descripcion":"error: no implicit conversion of Fixnum into String","importe":"$13095.00","moneda":"dolares"},
{"id":7,"tipo":"abono","fecha":"09/29/2019","descripcion":"error: no implicit conversion of Fixnum into String","importe":"$48819.79","moneda":"dolares"},
{"id":8,"tipo":"abono","fecha":"10/22/2018","descripcion":"error: no implicit conversion of Fixnum into String","importe":"$29496.33","moneda":"dolares"},
{"id":9,"tipo":"abono","fecha":"06/21/2019","descripcion":"error: no implicit conversion of Fixnum into String","importe":"$71730.01","moneda":"dolares"},
{"id":10,"tipo":"abono","fecha":"07/07/2019","descripcion":"error: no implicit conversion of Fixnum into String","importe":"$22345.77","moneda":"dolares"},
{"id":11,"tipo":"abono","fecha":"09/28/2019","descripcion":"error: no implicit conversion of Fixnum into String","importe":"$93756.51","moneda":"dolares"},
{"id":12,"tipo":"abono","fecha":"11/24/2018","descripcion":"error: no implicit conversion of Fixnum into String","importe":"$35393.67","moneda":"dolares"},
{"id":13,"tipo":"abono","fecha":"01/18/2019","descripcion":"error: no implicit conversion of Fixnum into String","importe":"$70517.37","moneda":"dolares"},
{"id":14,"tipo":"abono","fecha":"10/14/2018","descripcion":"error: no implicit conversion of Fixnum into String","importe":"$34174.33","moneda":"dolares"},
{"id":15,"tipo":"abono","fecha":"06/02/2019","descripcion":"error: no implicit conversion of Fixnum into String","importe":"$41379.35","moneda":"dolares"},
{"id":16,"tipo":"abono","fecha":"10/17/2018","descripcion":"error: no implicit conversion of Fixnum into String","importe":"$36918.59","moneda":"dolares"},
{"id":17,"tipo":"abono","fecha":"10/05/2019","descripcion":"error: no implicit conversion of Fixnum into String","importe":"$47536.89","moneda":"dolares"},
{"id":18,"tipo":"abono","fecha":"05/16/2019","descripcion":"error: no implicit conversion of Fixnum into String","importe":"$46825.83","moneda":"dolares"},
{"id":19,"tipo":"abono","fecha":"01/17/2019","descripcion":"error: no implicit conversion of Fixnum into String","importe":"$17953.20","moneda":"dolares"},
{"id":20,"tipo":"abono","fecha":"06/21/2019","descripcion":"error: no implicit conversion of Fixnum into String","importe":"$44287.96","moneda":"dolares"},
{"id":21,"tipo":"abono","fecha":"09/18/2019","descripcion":"error: no implicit conversion of Fixnum into String","importe":"$93829.99","moneda":"dolares"},
{"id":22,"tipo":"abono","fecha":"03/28/2019","descripcion":"error: no implicit conversion of Fixnum into String","importe":"$75089.57","moneda":"dolares"},
{"id":23,"tipo":"abono","fecha":"11/30/2018","descripcion":"error: no implicit conversion of Fixnum into String","importe":"$10681.62","moneda":"dolares"},
{"id":24,"tipo":"abono","fecha":"09/30/2019","descripcion":"error: no implicit conversion of Fixnum into String","importe":"$31686.69","moneda":"dolares"},
{"id":25,"tipo":"abono","fecha":"09/15/2019","descripcion":"error: no implicit conversion of Fixnum into String","importe":"$11453.47","moneda":"dolares"},
{"id":26,"tipo":"abono","fecha":"07/09/2019","descripcion":"error: no implicit conversion of Fixnum into String","importe":"$82450.96","moneda":"dolares"},
{"id":27,"tipo":"abono","fecha":"12/08/2018","descripcion":"error: no implicit conversion of Fixnum into String","importe":"$29219.89","moneda":"dolares"},
{"id":28,"tipo":"abono","fecha":"06/19/2019","descripcion":"error: no implicit conversion of Fixnum into String","importe":"$63002.92","moneda":"dolares"},
{"id":29,"tipo":"abono","fecha":"12/24/2018","descripcion":"error: no implicit conversion of Fixnum into String","importe":"$60910.36","moneda":"dolares"},
{"id":30,"tipo":"abono","fecha":"10/24/2018","descripcion":"error: no implicit conversion of Fixnum into String","importe":"$80141.52","moneda":"dolares"},
{"id":31,"tipo":"abono","fecha":"04/07/2019","descripcion":"error: no implicit conversion of Fixnum into String","importe":"$71033.76","moneda":"dolares"},
{"id":32,"tipo":"abono","fecha":"11/03/2018","descripcion":"error: no implicit conversion of Fixnum into String","importe":"$96700.43","moneda":"dolares"},
{"id":33,"tipo":"abono","fecha":"05/25/2019","descripcion":"error: no implicit conversion of Fixnum into String","importe":"$89455.05","moneda":"dolares"},
{"id":34,"tipo":"abono","fecha":"12/13/2018","descripcion":"error: no implicit conversion of Fixnum into String","importe":"$89614.62","moneda":"dolares"},
{"id":35,"tipo":"abono","fecha":"08/06/2019","descripcion":"error: no implicit conversion of Fixnum into String","importe":"$76345.17","moneda":"dolares"},
{"id":36,"tipo":"abono","fecha":"11/23/2018","descripcion":"error: no implicit conversion of Fixnum into String","importe":"$10306.90","moneda":"dolares"},
{"id":37,"tipo":"abono","fecha":"07/13/2019","descripcion":"error: no implicit conversion of Fixnum into String","importe":"$18509.33","moneda":"dolares"},
{"id":38,"tipo":"abono","fecha":"01/31/2019","descripcion":"error: no implicit conversion of Fixnum into String","importe":"$96549.05","moneda":"dolares"},
{"id":39,"tipo":"abono","fecha":"08/22/2019","descripcion":"error: no implicit conversion of Fixnum into String","importe":"$56945.95","moneda":"dolares"},
{"id":40,"tipo":"abono","fecha":"07/12/2019","descripcion":"error: no implicit conversion of Fixnum into String","importe":"$23403.82","moneda":"dolares"},
{"id":41,"tipo":"abono","fecha":"06/26/2019","descripcion":"error: no implicit conversion of Fixnum into String","importe":"$31011.69","moneda":"dolares"},
{"id":42,"tipo":"abono","fecha":"12/27/2018","descripcion":"error: no implicit conversion of Fixnum into String","importe":"$89717.66","moneda":"dolares"},
{"id":43,"tipo":"abono","fecha":"03/18/2019","descripcion":"error: no implicit conversion of Fixnum into String","importe":"$40877.18","moneda":"dolares"},
{"id":44,"tipo":"abono","fecha":"07/10/2019","descripcion":"error: no implicit conversion of Fixnum into String","importe":"$52293.56","moneda":"dolares"},
{"id":45,"tipo":"abono","fecha":"11/13/2018","descripcion":"error: no implicit conversion of Fixnum into String","importe":"$82061.19","moneda":"dolares"},
{"id":46,"tipo":"abono","fecha":"11/21/2018","descripcion":"error: no implicit conversion of Fixnum into String","importe":"$14461.94","moneda":"dolares"},
{"id":47,"tipo":"abono","fecha":"03/31/2019","descripcion":"error: no implicit conversion of Fixnum into String","importe":"$78905.27","moneda":"dolares"},
{"id":48,"tipo":"abono","fecha":"10/11/2018","descripcion":"error: no implicit conversion of Fixnum into String","importe":"$87448.52","moneda":"dolares"},
{"id":49,"tipo":"abono","fecha":"05/29/2019","descripcion":"error: no implicit conversion of Fixnum into String","importe":"$43838.04","moneda":"dolares"},
{"id":50,"tipo":"abono","fecha":"08/15/2019","descripcion":"error: no implicit conversion of Fixnum into String","importe":"$47855.01","moneda":"dolares"},
{"id":51,"tipo":"abono","fecha":"05/06/2019","descripcion":"error: no implicit conversion of Fixnum into String","importe":"$94949.55","moneda":"dolares"},
{"id":52,"tipo":"abono","fecha":"11/29/2018","descripcion":"error: no implicit conversion of Fixnum into String","importe":"$43414.44","moneda":"dolares"},
{"id":53,"tipo":"abono","fecha":"06/12/2019","descripcion":"error: no implicit conversion of Fixnum into String","importe":"$94855.90","moneda":"dolares"},
{"id":54,"tipo":"abono","fecha":"06/04/2019","descripcion":"error: no implicit conversion of Fixnum into String","importe":"$45599.90","moneda":"dolares"},
{"id":55,"tipo":"abono","fecha":"11/20/2018","descripcion":"error: no implicit conversion of Fixnum into String","importe":"$60539.30","moneda":"dolares"},
{"id":56,"tipo":"abono","fecha":"11/19/2018","descripcion":"error: no implicit conversion of Fixnum into String","importe":"$44979.38","moneda":"dolares"},
{"id":57,"tipo":"abono","fecha":"05/10/2019","descripcion":"error: no implicit conversion of Fixnum into String","importe":"$25225.75","moneda":"dolares"},
{"id":58,"tipo":"abono","fecha":"04/23/2019","descripcion":"error: no implicit conversion of Fixnum into String","importe":"$68564.76","moneda":"dolares"},
{"id":59,"tipo":"abono","fecha":"03/08/2019","descripcion":"error: no implicit conversion of Fixnum into String","importe":"$46612.57","moneda":"dolares"},
{"id":60,"tipo":"abono","fecha":"06/26/2019","descripcion":"error: no implicit conversion of Fixnum into String","importe":"$19307.78","moneda":"dolares"},
{"id":61,"tipo":"abono","fecha":"09/15/2019","descripcion":"error: no implicit conversion of Fixnum into String","importe":"$67635.20","moneda":"dolares"},
{"id":62,"tipo":"abono","fecha":"04/07/2019","descripcion":"error: no implicit conversion of Fixnum into String","importe":"$22141.17","moneda":"dolares"},
{"id":63,"tipo":"abono","fecha":"04/06/2019","descripcion":"error: no implicit conversion of Fixnum into String","importe":"$75044.24","moneda":"dolares"},
{"id":64,"tipo":"abono","fecha":"06/18/2019","descripcion":"error: no implicit conversion of Fixnum into String","importe":"$98751.17","moneda":"dolares"},
{"id":65,"tipo":"abono","fecha":"05/20/2019","descripcion":"error: no implicit conversion of Fixnum into String","importe":"$53878.79","moneda":"dolares"},
{"id":66,"tipo":"abono","fecha":"06/05/2019","descripcion":"error: no implicit conversion of Fixnum into String","importe":"$26654.56","moneda":"dolares"},
{"id":67,"tipo":"abono","fecha":"03/30/2019","descripcion":"error: no implicit conversion of Fixnum into String","importe":"$86254.78","moneda":"dolares"},
{"id":68,"tipo":"abono","fecha":"04/27/2019","descripcion":"error: no implicit conversion of Fixnum into String","importe":"$61626.76","moneda":"dolares"},
{"id":69,"tipo":"abono","fecha":"07/29/2019","descripcion":"error: no implicit conversion of Fixnum into String","importe":"$46359.66","moneda":"dolares"},
{"id":70,"tipo":"abono","fecha":"04/25/2019","descripcion":"error: no implicit conversion of Fixnum into String","importe":"$26778.08","moneda":"dolares"},
{"id":71,"tipo":"abono","fecha":"07/26/2019","descripcion":"error: no implicit conversion of Fixnum into String","importe":"$71727.29","moneda":"dolares"},
{"id":72,"tipo":"abono","fecha":"02/15/2019","descripcion":"error: no implicit conversion of Fixnum into String","importe":"$67597.46","moneda":"dolares"},
{"id":73,"tipo":"abono","fecha":"07/09/2019","descripcion":"error: no implicit conversion of Fixnum into String","importe":"$31578.72","moneda":"dolares"},
{"id":74,"tipo":"abono","fecha":"06/24/2019","descripcion":"error: no implicit conversion of Fixnum into String","importe":"$89471.96","moneda":"dolares"},
{"id":75,"tipo":"abono","fecha":"12/07/2018","descripcion":"error: no implicit conversion of Fixnum into String","importe":"$11525.42","moneda":"dolares"},
{"id":76,"tipo":"abono","fecha":"06/10/2019","descripcion":"error: no implicit conversion of Fixnum into String","importe":"$70521.59","moneda":"dolares"},
{"id":77,"tipo":"abono","fecha":"03/20/2019","descripcion":"error: no implicit conversion of Fixnum into String","importe":"$82455.69","moneda":"dolares"},
{"id":78,"tipo":"abono","fecha":"01/13/2019","descripcion":"error: no implicit conversion of Fixnum into String","importe":"$41291.79","moneda":"dolares"},
{"id":79,"tipo":"abono","fecha":"08/22/2019","descripcion":"error: no implicit conversion of Fixnum into String","importe":"$22518.83","moneda":"dolares"},
{"id":80,"tipo":"abono","fecha":"06/01/2019","descripcion":"error: no implicit conversion of Fixnum into String","importe":"$12528.59","moneda":"dolares"},
{"id":81,"tipo":"abono","fecha":"09/05/2019","descripcion":"error: no implicit conversion of Fixnum into String","importe":"$61680.35","moneda":"dolares"},
{"id":82,"tipo":"abono","fecha":"07/03/2019","descripcion":"error: no implicit conversion of Fixnum into String","importe":"$54582.66","moneda":"dolares"},
{"id":83,"tipo":"abono","fecha":"04/28/2019","descripcion":"error: no implicit conversion of Fixnum into String","importe":"$40258.53","moneda":"dolares"},
{"id":84,"tipo":"abono","fecha":"11/19/2018","descripcion":"error: no implicit conversion of Fixnum into String","importe":"$92354.79","moneda":"dolares"},
{"id":85,"tipo":"abono","fecha":"07/29/2019","descripcion":"error: no implicit conversion of Fixnum into String","importe":"$79537.31","moneda":"dolares"},
{"id":86,"tipo":"abono","fecha":"01/29/2019","descripcion":"error: no implicit conversion of Fixnum into String","importe":"$39295.17","moneda":"dolares"},
{"id":87,"tipo":"abono","fecha":"05/03/2019","descripcion":"error: no implicit conversion of Fixnum into String","importe":"$98306.02","moneda":"dolares"},
{"id":88,"tipo":"abono","fecha":"12/20/2018","descripcion":"error: no implicit conversion of Fixnum into String","importe":"$87547.04","moneda":"dolares"},
{"id":89,"tipo":"abono","fecha":"12/03/2018","descripcion":"error: no implicit conversion of Fixnum into String","importe":"$80609.05","moneda":"dolares"},
{"id":90,"tipo":"abono","fecha":"11/28/2018","descripcion":"error: no implicit conversion of Fixnum into String","importe":"$30771.78","moneda":"dolares"},
{"id":91,"tipo":"abono","fecha":"05/23/2019","descripcion":"error: no implicit conversion of Fixnum into String","importe":"$85604.83","moneda":"dolares"},
{"id":92,"tipo":"abono","fecha":"07/17/2019","descripcion":"error: no implicit conversion of Fixnum into String","importe":"$91544.13","moneda":"dolares"},
{"id":93,"tipo":"abono","fecha":"10/21/2018","descripcion":"error: no implicit conversion of Fixnum into String","importe":"$73160.62","moneda":"dolares"},
{"id":94,"tipo":"abono","fecha":"09/24/2019","descripcion":"error: no implicit conversion of Fixnum into String","importe":"$45204.66","moneda":"dolares"},
{"id":95,"tipo":"abono","fecha":"12/16/2018","descripcion":"error: no implicit conversion of Fixnum into String","importe":"$90561.29","moneda":"dolares"},
{"id":96,"tipo":"abono","fecha":"11/21/2018","descripcion":"error: no implicit conversion of Fixnum into String","importe":"$33348.25","moneda":"dolares"},
{"id":97,"tipo":"abono","fecha":"08/03/2019","descripcion":"error: no implicit conversion of Fixnum into String","importe":"$49287.33","moneda":"dolares"},
{"id":98,"tipo":"abono","fecha":"06/02/2019","descripcion":"error: no implicit conversion of Fixnum into String","importe":"$91116.51","moneda":"dolares"},
{"id":99,"tipo":"abono","fecha":"10/31/2018","descripcion":"error: no implicit conversion of Fixnum into String","importe":"$23689.14","moneda":"dolares"},
{"id":100,"tipo":"abono","fecha":"07/18/2019","descripcion":"error: no implicit conversion of Fixnum into String","importe":"$89229.85","moneda":"dolares"}]